# Blender MTL File: 'quit.blend'
# Material Count: 27

newmtl Material_#691
Ns 96.078431
Ka 0.000000 0.000000 0.000000
Kd 0.752941 0.131765 0.131765
Ks 0.449020 0.449020 0.449020
Ni 1.000000
d 1.000000
illum 2

newmtl Material_#692
Ns 96.078431
Ka 0.000000 0.000000 0.000000
Kd 0.752941 0.131765 0.131765
Ks 0.449020 0.449020 0.449020
Ni 1.000000
d 1.000000
illum 2

newmtl Material_#693
Ns 96.078431
Ka 0.000000 0.000000 0.000000
Kd 0.752941 0.131765 0.131765
Ks 0.449020 0.449020 0.449020
Ni 1.000000
d 1.000000
illum 2

newmtl Material_#694
Ns 96.078431
Ka 0.000000 0.000000 0.000000
Kd 0.558431 0.558431 0.558431
Ks 0.449020 0.449020 0.449020
Ni 1.000000
d 1.000000
illum 2

newmtl Material_#695
Ns 96.078431
Ka 0.000000 0.000000 0.000000
Kd 0.175686 0.175686 0.175686
Ks 0.449020 0.449020 0.449020
Ni 1.000000
d 1.000000
illum 2

newmtl Material_#696
Ns 96.078431
Ka 0.000000 0.000000 0.000000
Kd 0.175686 0.175686 0.175686
Ks 0.449020 0.449020 0.449020
Ni 1.000000
d 1.000000
illum 2

newmtl Material_#697
Ns 96.078431
Ka 0.000000 0.000000 0.000000
Kd 0.081569 0.081569 0.081569
Ks 0.449020 0.449020 0.449020
Ni 1.000000
d 1.000000
illum 2

newmtl Material_#699
Ns 96.078431
Ka 0.000000 0.000000 0.000000
Kd 0.699608 0.389020 0.160000
Ks 0.449020 0.449020 0.449020
Ni 1.000000
d 1.000000
illum 2

newmtl Material_#700
Ns 96.078431
Ka 0.000000 0.000000 0.000000
Kd 0.800000 0.800000 0.800000
Ks 0.449020 0.449020 0.449020
Ni 1.000000
d 1.000000
illum 2

newmtl black
Ns 96.078431
Ka 0.000000 0.000000 0.000000
Kd 0.131765 0.131765 0.131765
Ks 0.449020 0.449020 0.449020
Ni 1.000000
d 1.000000
illum 2

newmtl black1
Ns 96.078431
Ka 0.000000 0.000000 0.000000
Kd 0.131765 0.131765 0.131765
Ks 0.449020 0.449020 0.449020
Ni 1.000000
d 1.000000
illum 2

newmtl crome
Ns 96.078431
Ka 0.000000 0.000000 0.000000
Kd 0.401569 0.401569 0.401569
Ks 0.500000 0.500000 0.500000
Ni 1.000000
d 1.000000
illum 2

newmtl dore
Ns 96.078431
Ka 0.000000 0.000000 0.000000
Kd 0.643137 0.495686 0.181961
Ks 0.500000 0.500000 0.500000
Ni 1.000000
d 1.000000
illum 2

newmtl duccar
Ns 96.078431
Ka 0.000000 0.000000 0.000000
Kd 0.752941 0.131765 0.131765
Ks 0.449020 0.449020 0.449020
Ni 1.000000
d 1.000000
illum 2

newmtl duccar2
Ns 96.078431
Ka 0.000000 0.000000 0.000000
Kd 0.752941 0.131765 0.131765
Ks 0.449020 0.449020 0.449020
Ni 1.000000
d 1.000000
illum 2

newmtl duccar5
Ns 96.078431
Ka 0.000000 0.000000 0.000000
Kd 0.752941 0.131765 0.131765
Ks 0.449020 0.449020 0.449020
Ni 1.000000
d 1.000000
illum 2

newmtl ducglass
Ns 96.078431
Ka 0.000000 0.000000 0.000000
Kd 0.040784 0.156863 0.003137
Ks 0.500000 0.500000 0.500000
Ni 1.000000
d 0.500000
illum 2

newmtl ducl
Ns 96.078431
Ka 0.000000 0.000000 0.000000
Kd 0.752941 0.131765 0.131765
Ks 0.449020 0.449020 0.449020
Ni 1.000000
d 1.000000
illum 2

newmtl duclc
Ns 96.078431
Ka 0.000000 0.000000 0.000000
Kd 0.800000 0.800000 0.800000
Ks 0.500000 0.500000 0.500000
Ni 1.000000
d 1.000000
illum 2

newmtl duclg1
Ns 96.078431
Ka 0.000000 0.000000 0.000000
Kd 0.800000 0.800000 0.800000
Ks 0.500000 0.500000 0.500000
Ni 1.000000
d 0.500000
illum 2

newmtl duclg11
Ns 96.078431
Ka 0.000000 0.000000 0.000000
Kd 0.800000 0.800000 0.800000
Ks 0.500000 0.500000 0.500000
Ni 1.000000
d 0.500000
illum 2

newmtl duclg2
Ns 96.078431
Ka 0.000000 0.000000 0.000000
Kd 0.730980 0.207059 0.000000
Ks 0.500000 0.500000 0.500000
Ni 1.000000
d 0.500000
illum 2

newmtl ducr
Ns 96.078431
Ka 0.000000 0.000000 0.000000
Kd 0.752941 0.178824 0.178824
Ks 0.449020 0.449020 0.449020
Ni 1.000000
d 1.000000
illum 2

newmtl ducsh
Ns 96.078431
Ka 0.000000 0.000000 0.000000
Kd 0.800000 0.483137 0.175686
Ks 0.449020 0.449020 0.449020
Ni 1.000000
d 1.000000
illum 2

newmtl ducwsh
Ns 96.078431
Ka 0.000000 0.000000 0.000000
Kd 0.800000 0.483137 0.175686
Ks 0.449020 0.449020 0.449020
Ni 1.000000
d 1.000000
illum 2

newmtl megr
Ns 96.078431
Ka 0.000000 0.000000 0.000000
Kd 0.545882 0.545882 0.574118
Ks 0.500000 0.500000 0.500000
Ni 1.000000
d 1.000000
illum 2

newmtl orange
Ns 96.078431
Ka 0.000000 0.000000 0.000000
Kd 0.800000 0.483137 0.175686
Ks 0.500000 0.500000 0.500000
Ni 1.000000
d 1.000000
illum 2
